[
    {
        "id" : 1,
        "title" : "TV 43''",
        "description" : "Tv 43'' - *Imagem meramente ilustrativa. Disponível enquanto durar o estoque.",
        "image" : "sampledata/products/tvIlustrativa.jpg",
        "price" : 10
    },
    {
        "id" : 2,
        "title" : "Bicicleta",
        "description" : "*Imagem meramente ilustrativa. Disponível enquanto durar o estoque.",
        "image" : "sampledata/products/bicicleta.jpg",
        "price" : 100
    },
    {
        "id" : 3,
        "title" : "Vintage Watch",
        "description" : "Lorem ipsum dolor sit amet, consectetur adipisicing elit. Ut, nesciunt hic aut? Saepe nihil autem nesciunt, ab quisquam animi, aperiam fugit? Ut velit a, in perspiciatis error inventore. Dolorum, eligendi.",
        "image" : "sampledata/products/3.jpg",
        "price" : 200
    },
    {
        "id" : 4,
        "title" : "Magic Glasses",
        "description" : "Lorem ipsum dolor sit amet, consectetur adipisicing elit. Ut, nesciunt hic aut? Saepe nihil autem nesciunt, ab quisquam animi, aperiam fugit? Ut velit a, in perspiciatis error inventore. Dolorum, eligendi.",
        "image" : "sampledata/products/4.jpg",
        "price" : 85
    }

]
